Take Home Exercise 01 – ISSS608
…
ship_data %>%
  group_by(Weekly_Voyage_Count, Ship_Type) %>%
  summarise(Record_Count = n()) %>%
  arrange(Weekly_Voyage_Count, Ship_Type)

# A tibble: 36 × 3
# Groups:   Weekly_Voyage_Count [9]
   Weekly_Voyage_Count Ship_Type      Record_Count
                 <int> <chr>                 <int>
 1                   1 Bulk Carrier             65
 2                   1 Container Ship           75
 3                   1 Fish Carrier             58
 4                   1 Tanker                   61
 5                   2 Bulk Carrier             72
 6                   2 Container Ship           56
 7                   2 Fish Carrier             58
 8                   2 Tanker                   68
 9                   3 Bulk Carrier             62
10                   3 Container Ship           49
# ℹ 26 more rows
…
